%YAML 1.1
%TAG !u! tag:unity3d.com,2011:
--- !u!114 &11400000
MonoBehaviour:
  m_ObjectHideFlags: 16
  m_PrefabParentObject: {fileID: 0}
  m_PrefabInternal: {fileID: 0}
  m_GameObject: {fileID: 0}
  m_Enabled: 1
  m_EditorHideFlags: 0
  m_Script: {fileID: 9636717, guid: ac5f4bfb0f5a3894a80a58e0d2c29aa9, type: 3}
  m_Name: HierarchySettings
  m_EditorClassIdentifier: 
  pluginID: 0
  last_scenesV2:
  - guid: 6b0bd62c319292b40aa010185d3ed15f
    pin: 0
    path: Assets/Game/Scenes/MapLoader.unity
    additional_guid: []
    additional_path: []
  - guid: 499d6f3451038d64db2a014c481132f8
    pin: 0
    path: Assets/Game/Scenes/main.unity
    additional_guid: []
    additional_path: []
  - guid: 001197277e9c8cc4a9ac567e80c2ed81
    pin: 0
    path: Assets/Templates/UI Elements/Scenes/ProgressBar and Sliders.unity
    additional_guid: []
    additional_path: []
  - guid: 7c3172757e1ee47b996adc7736c63853
    pin: 0
    path: Assets/Templates/Simple UI/Samples/Shop.unity
    additional_guid: []
    additional_path: []
  - guid: 25868143033004857a50688c5c8f49fb
    pin: 0
    path: Assets/Templates/Simple UI/Samples/Achievements.unity
    additional_guid: []
    additional_path: []
  last_scenes: []
  m_hiddenComponents: []
  modulesParamsType:
  - EModules.EModulesInternal.Hierarchy+M_SetActive
  - EModules.EModulesInternal.Adapter+M_Colors
  - EModules.EModulesInternal.Hierarchy+M_Warning
  - EModules.EModulesInternal.Hierarchy+M_Freeze
  - EModules.EModulesInternal.Hierarchy+M_PrefabApply
  - EModules.EModulesInternal.Hierarchy+M_Vertices
  - EModules.EModulesInternal.Hierarchy+M_Audio
  - EModules.EModulesInternal.Hierarchy+M_Tag
  - EModules.EModulesInternal.Hierarchy+M_Layers
  - EModules.EModulesInternal.Hierarchy+M_CustomIcons
  - EModules.EModulesInternal.Hierarchy+M_Descript
  - EModules.EModulesInternal.Hierarchy+M_SpritesOrder
  - EModules.EModulesInternal.Hierarchy+M_PlayModeKeeper
  - EModules.EModulesInternal.M_UserModulesRoot_Slot1
  - EModules.EModulesInternal.M_UserModulesRoot_Slot2
  - EModules.EModulesInternal.M_UserModulesRoot_Slot3
  - EModules.EModulesInternal.M_UserModulesRoot_Slot4
  - EModules.EModulesInternal.M_UserModulesRoot_Slot5
  - EModules.EModulesInternal.M_UserModulesRoot_Slot6
  - EModules.EModulesInternal.M_UserModulesRoot_Slot7
  - EModules.EModulesInternal.M_UserModulesRoot_Slot8
  - EModules.EModulesInternal.M_UserModulesRoot_Slot9
  modulesParamsClass:
  - enable: 1
    sib: -1
    width: 16
  - enable: 1
    sib: -1
    width: 16
  - enable: 1
    sib: -1
    width: 16
  - enable: 0
    sib: 0
    width: 16
  - enable: 0
    sib: 1
    width: 16
  - enable: 1
    sib: 2
    width: 32
  - enable: 0
    sib: 3
    width: 16
  - enable: 0
    sib: 4
    width: 48
  - enable: 0
    sib: 5
    width: 48
  - enable: 1
    sib: 6
    width: 48
  - enable: 1
    sib: 8
    width: 68
  - enable: 0
    sib: 7
    width: 68
  - enable: 1
    sib: -1
    width: 16
  - enable: 0
    sib: 9
    width: 68
  - enable: 0
    sib: 10
    width: 68
  - enable: 0
    sib: 11
    width: 68
  - enable: 0
    sib: 12
    width: 68
  - enable: 0
    sib: 13
    width: 68
  - enable: 0
    sib: 14
    width: 68
  - enable: 0
    sib: 15
    width: 68
  - enable: 0
    sib: 16
    width: 68
  - enable: 0
    sib: 17
    width: 68
  lastIconSelect: []
  lasHiglightColorSelect: []
  listKey: []
  listValue: []
  listValueNew: []
  WasCustomNewApply: 1
  _mFavoritWindowParams_keys: 
  _mFavoritWindowParams_values: []
  PRESETS_DATA: 
  PRESETS_SCROLL_CAT: 0
  PRESETS_SCROLL_PRES: 0
  PRESETS_SELECT: 0
  WAS_NEW_INIT: 1
  USE_REGISTRATOR: 0
  prop_m_DataKeeper_Values: []
